Lab 6
…
#Question 1

specialty_count <- mt_samples %>%
  count(medical_specialty, sort = TRUE)
print(specialty_count)

# A tibble: 40 × 2
   medical_specialty                 n
   <chr>                         <int>
 1 Surgery                        1103
 2 Consult - History and Phy.      516
 3 Cardiovascular / Pulmonary      372
 4 Orthopedic                      355
 5 Radiology                       273
 6 General Medicine                259
 7 Gastroenterology                230
 8 Neurology                       223
 9 SOAP / Chart / Progress Notes   166
10 Obstetrics / Gynecology         160
# ℹ 30 more rows
…
Joining with `by = join_by(word)`

# Count the words within each specialty and find the top 5 most used words per specialty
top_words_per_specialty <- tokens_clean %>%
  group_by(medical_specialty, word) %>%
  summarise(word_count = n(), .groups = 'drop') %>%
  group_by(medical_specialty) %>%
  slice_max(word_count, n = 5)

# View the result
top_words_per_specialty

# A tibble: 210 × 3
# Groups:   medical_specialty [40]
   medical_specialty    word      word_count
   <chr>                <chr>          <int>
 1 Allergy / Immunology history           38
 2 Allergy / Immunology noted             23
 3 Allergy / Immunology patient           22
 4 Allergy / Immunology allergies         21
 5 Allergy / Immunology nasal             13
 6 Allergy / Immunology past              13
 7 Autopsy              left              83
 8 Autopsy              inch              59
 9 Autopsy              neck              55
10 Autopsy              anterior          47
# ℹ 200 more rows
…
